{
  "page": 1,
  "per_page": 10,
  "total": 12,
  "total_pages": 2,
  "data": [
    {
      "id": 1,
      "email": "george.bluth@dotestthere.com",
      "first_name": "George",
      "last_name": "Bluth",
      "avatar": "https://dotestthere.com/img/faces/1-image.jpg"
    },
    {
      "id": 2,
      "email": "janet.weaver@dotestthere.com",
      "first_name": "Janet",
      "last_name": "Weaver",
      "avatar": "https://dotestthere.com/img/faces/2-image.jpg"
    }
  ]
}